<?xml version="1.0" encoding="UTF-8" standalone="no"?>
<!-- Created with Inkscape (http://www.inkscape.org/) -->

<svg
   xmlns:dc="http://purl.org/dc/elements/1.1/"
   xmlns:cc="http://creativecommons.org/ns#"
   xmlns:rdf="http://www.w3.org/1999/02/22-rdf-syntax-ns#"
   xmlns:svg="http://www.w3.org/2000/svg"
   xmlns="http://www.w3.org/2000/svg"
   xmlns:xlink="http://www.w3.org/1999/xlink"
   xmlns:sodipodi="http://sodipodi.sourceforge.net/DTD/sodipodi-0.dtd"
   xmlns:inkscape="http://www.inkscape.org/namespaces/inkscape"
   height="1000"
   width="1000"
   sodipodi:docname="tipo_esp.svg"
   version="1.1"
   id="svg1541"
   inkscape:version="0.92.5 (2060ec1f9f, 2020-04-08)">
  <sodipodi:namedview
     id="base"
     pagecolor="#ffffff"
     bordercolor="#666666"
     borderopacity="1.0"
     inkscape:pageopacity="0.0"
     inkscape:pageshadow="2"
     inkscape:zoom="1.4142136"
     inkscape:cx="75.437289"
     inkscape:cy="609.2976"
     inkscape:document-units="px"
     inkscape:current-layer="svg1541"
     showgrid="false"
     showguides="true"
     inkscape:window-width="1920"
     inkscape:window-height="995"
     inkscape:window-x="0"
     inkscape:window-y="0"
     inkscape:window-maximized="1"
     showborder="true"
     inkscape:showpageshadow="false">
    <sodipodi:guide
       id="guide_baseline"
       inkscape:label="baseline"
       position="0,253"
       orientation="0,1"
       inkscape:locked="false" />
    <sodipodi:guide
       id="guide_ascender"
       inkscape:label="ascender"
       position="0,945"
       orientation="0,1"
       inkscape:locked="false" />
    <sodipodi:guide
       id="guide_caps"
       inkscape:label="caps"
       position="0,896"
       orientation="0,1"
       inkscape:locked="false" />
    <sodipodi:guide
       id="guide_xheight"
       inkscape:label="xheight"
       position="0,729"
       orientation="0,1"
       inkscape:locked="false" />
    <sodipodi:guide
       id="guide_descender"
       inkscape:label="descender"
       position="0,28"
       orientation="0,1"
       inkscape:locked="false" />
  </sodipodi:namedview>
  <defs
     id="defs4" />
  <metadata
     id="metadata7">
    <rdf:RDF>
      <cc:Work
         rdf:about="">
        <dc:format>image/svg+xml</dc:format>
        <dc:type
           rdf:resource="http://purl.org/dc/dcmitype/StillImage" />
        <dc:title />
      </cc:Work>
    </rdf:RDF>
  </metadata>
  <g
     inkscape:groupmode="layer"
     id="layer1"
     inkscape:label="Layer 3"
     style="display:inline"
     sodipodi:insensitive="true">
    <image
       y="97"
       x="0"
       id="image912"
       xlink:href="data:image/png;base64,iVBORw0KGgoAAAANSUhEUgAAAAoAAAAWCAQAAABTL8XWAAABI2lDQ1BJQ0MgcHJvZmlsZQAAKJGd kLFKw1AUhr/UYosoIoqDOGRwLbiYyaUqBEEhxgpWpzRJsZjEkKQU38A30YfpIAi+gS+g4Ox/o4OD Wbxw+D8O5/z/vRdadhKmZXsX0qwqXL8/vBxe2Z03uqzSoc1aEJZ53/NOaDyfr1hGX3rGq3nuz7MY xWUonauyMC8qsPbFzqzKDavYuB34h+IHsR2lWSR+Eu9EaWTY7PppMg1/PM1tluPs4tz0Vdu4HHOK h82IKRMSKnrSTJ0jHPakLgUB95SE0oRYvZlmKm5EpZxcDkQDkW7TkLdV53lKGcljIi+TcEcqT5OH +d/vtY+zetPanOdBEdStBVVrPIb3R1gZwvozLF03ZHV/v61hxqln/vnGL47xUDite3MyAAAAAmJL R0QAAKqNIzIAAAAJcEhZcwAACxIAAAsSAdLdfvwAAAAHdElNRQflCA8IBSyj8rIYAAAAGXRFWHRD b21tZW50AENyZWF0ZWQgd2l0aCBHSU1QV4EOFwAAASxJREFUGNNVzr1q02EYhvHf8+ZtEgkKRbAi dmlQ0cVBN1fRM3DXxTPwGBScnT0IRcTVsSBI/RpscROqWGtiTf4fj0Pj4DXdXHDBHZ0wM7HQKOa5 HkWB9uZ+7ufH3Mn4caRVQ+DAth1f3Fq/kRtR0sHW7NUnT4189di+fquk9mFvzxtDY2mg7JbW6M43 55z21sIDGwZqMTSdTj4/cWjivJOPqkiNztJie3ltYDxd2x2LRGehlYqhKkSnIHU4vteLbjX/kVJJ +Z+Cmqv8mECKBr1+pcIQNRzp/M6lNemXSxFq53vOvfbeWbddiBRqo/PCM2e81LiX4yhK59AHezYx NzOQSjjhigPPDWwaafTqQHXZXT9ddd2p+0WI1tK7HGtV6WJURfQaVa/zxxhD4S+i3nic1WjUSwAA AABJRU5ErkJggg== "
       preserveAspectRatio="none"
       height="650"
       width="295.45456" />
  </g>
  <g
     inkscape:groupmode="layer"
     id="layer3"
     inkscape:label="Layer 2"
     style="display:inline" />
  <path
     id="path835"
     style="fill:#000000;stroke:none;stroke-width:1px;stroke-linecap:butt;stroke-linejoin:miter;stroke-opacity:1;fill-opacity:1"
     d="m 145.7645,362.08918 c -19.05262,3.52569 -33.74034,12.50749 -45.25483,25.45584 -8.351336,12.91545 -18.96367,22.6655 -18.384778,48.08326 2.134753,20.0237 7.082668,37.74573 29.698488,41.0122 19.32758,7.31195 38.65517,11.35451 57.98275,0 15.13028,-11.26837 33.41149,-14.43607 35.35534,-43.84062 4.54912,-36.49262 -2.33696,-34.7711 -14.14213,-49.49748 -6.09123,-13.49515 -26.44989,-16.79928 -45.25484,-21.2132 z M 164.46289,160.0918 c -1.96766,0.0287 -3.98728,0.12665 -6.05664,0.29492 -40.44393,1.40056 -72.970131,63.19829 -48.90039,96.32031 28.54078,37.85164 90.22819,14.29346 104.84375,-6.30273 23.4474,-26.69277 11.11078,-91.20227 -49.88672,-90.3125 z m -29.40625,393.72461 c -4.40565,0.067 -29.56092,-0.11608 -41.011718,7.77734 -15.655236,12.51959 -21.750498,25.67779 -23.333984,41.01172 0.49216,11.98198 -2.213766,22.68484 7.070312,38.18359 14.119472,14.39454 25.15465,20.90874 45.96289,22.98242 2.30509,1.53673 32.48976,-3.74102 37.83008,-9.19336 7.86194,-8.02684 21.38164,-27.01097 20.85937,-36.41601 -0.73403,-13.21851 -4.93756,-37.12499 -7.07031,-36.76953 -7.78003,-14.31799 -24.36496,-27.81855 -40.30664,-27.57617 z" />
</svg>
